get_data — get_data • getFertilizer
…
#>  3 37183 NC    Wake    2.16e9 5.72e7     35.8     -78.7  125006  1987  P       
#>  4 37183 NC    Wake    2.16e9 5.72e7     35.8     -78.7  719104. 1980  P       
#>  5 37183 NC    Wake    2.16e9 5.72e7     35.8     -78.7 1566581  1954  N       
#>  6 37183 NC    Wake    2.16e9 5.72e7     35.8     -78.7  181600  1993  P       
#>  7 37183 NC    Wake    2.16e9 5.72e7     35.8     -78.7  501911  2007  P       
#>  8 37183 NC    Wake    2.16e9 5.72e7     35.8     -78.7  749411. 1965  P       
#>  9 37183 NC    Wake    2.16e9 5.72e7     35.8     -78.7  321029  2008  P       
#> 10 37183 NC    Wake    2.16e9 5.72e7     35.8     -78.7 1973119  2000  N       
#> 11 37183 NC    Wake    2.16e9 5.72e7     35.8     -78.7 2446130  1988  N       
#> 12 37183 NC    Wake    2.16e9 5.72e7     35.8     -78.7 2315614  1983  N       
#> 13 37183 NC    Wake    2.16e9 5.72e7     35.8     -78.7 2233184  1968  N       
#> 14 37183 NC    Wake    2.16e9 5.72e7     35.8     -78.7 2594662  1978  N       
#> # ... with 2 more variables: Farm.Type <chr>, Input.Type <chr>
get_data(data, years = 1990)
#> # A tibble: 587 x 12
#>    FIPS  State County   ALAND AWATER INTPTLAT INTPTLONG Quantity Year  Nutrient
#>    <chr> <chr> <chr>    <dbl>  <dbl>    <dbl>     <dbl>    <dbl> <chr> <chr>   
#>  1 17177 IL    Stephe~ 1.46e9 1.39e6     42.3     -89.7     9022 1990  P       
#>  2 51685 VA    Manass~ 6.56e6 2.62e3     38.8     -77.4     4625 1990  N       
#>  3 46021 SD    Campbe~ 1.90e9 9.62e7     45.8    -100.      1509 1990  N       
#>  4 13183 GA    Long    1.04e9 9.12e6     31.7     -81.7      184 1990  N       
#>  5 48189 TX    Hale    2.60e9 2.47e5     34.1    -102.     16234 1990  N       
#>  6 28111 MS    Perry   1.68e9 7.64e6     31.2     -89.0     7376 1990  N       
#>  7 13305 GA    Wayne   1.66e9 1.82e7     31.5     -81.9      847 1990  N       
#>  8 48429 TX    Stephe~ 2.32e9 6.41e7     32.7     -98.8   320271 1990  N       
#>  9 48099 TX    Coryell 2.72e9 1.21e7     31.4     -97.8   340360 1990  P       
#> 10 18043 IN    Floyd   3.83e8 2.65e6     38.3     -85.9    16489 1990  P       
#> # ... with 577 more rows, and 2 more variables: Farm.Type <chr>,
#> #   Input.Type <chr>
…
